Time Series Analysis: Week 1
…
What is the type of AirPassengers?

What is the type of AirPassengers?

class(AirPassengers)

[1] "ts"

What is the type of us_rent_income?

What is the type of us_rent_income?

us_rent_income

# A tibble: 104 × 5
   GEOID NAME       variable estimate   moe
   <chr> <chr>      <chr>       <dbl> <dbl>
 1 01    Alabama    income      24476   136
 2 01    Alabama    rent          747     3
 3 02    Alaska     income      32940   508
 4 02    Alaska     rent         1200    13
 5 04    Arizona    income      27517   148
 6 04    Arizona    rent          972     4
 7 05    Arkansas   income      23789   165
 8 05    Arkansas   rent          709     5
 9 06    California income      29454   109
10 06    California rent         1358     3
# ℹ 94 more rows

What is the type of global_economy?

What is the type of global_economy?

global_economy

# A tsibble: 15,150 x 9 [1Y]
# Key:       Country [263]
   Country     Code   Year         GDP Growth   CPI Imports Exports Population
   <fct>       <fct> <dbl>       <dbl>  <dbl> <dbl>   <dbl>   <dbl>      <dbl>
 1 Afghanistan AFG    1960  537777811.     NA    NA    7.02    4.13    8996351
 2 Afghanistan AFG    1961  548888896.     NA    NA    8.10    4.45    9166764
 3 Afghanistan AFG    1962  546666678.     NA    NA    9.35    4.88    9345868
 4 Afghanistan AFG    1963  751111191.     NA    NA   16.9     9.17    9533954
 5 Afghanistan AFG    1964  800000044.     NA    NA   18.1     8.89    9731361
 6 Afghanistan AFG    1965 1006666638.     NA    NA   21.4    11.3     9938414
 7 Afghanistan AFG    1966 1399999967.     NA    NA   18.6     8.57   10152331
 8 Afghanistan AFG    1967 1673333418.     NA    NA   14.2     6.77   10372630
 9 Afghanistan AFG    1968 1373333367.     NA    NA   15.2     8.90   10604346
10 Afghanistan AFG    1969 1408888922.     NA    NA   15.0    10.1    10854428
# ℹ 15,140 more rows
…
Example 1

Let’s download an excel file and read it. Note, this data is in tibble

download.file("http://OTexts.com/fpp3/extrafiles/tourism.xlsx",
              tourism_file <- tempfile(), mode = "wb")
my_tourism <- readxl::read_excel(tourism_file) 
my_tourism

# A tibble: 24,320 × 5
   Quarter    Region   State           Purpose  Trips
   <chr>      <chr>    <chr>           <chr>    <dbl>
 1 1998-01-01 Adelaide South Australia Business  135.
 2 1998-04-01 Adelaide South Australia Business  110.
 3 1998-07-01 Adelaide South Australia Business  166.
 4 1998-10-01 Adelaide South Australia Business  127.
 5 1999-01-01 Adelaide South Australia Business  137.
 6 1999-04-01 Adelaide South Australia Business  200.
 7 1999-07-01 Adelaide South Australia Business  169.
 8 1999-10-01 Adelaide South Australia Business  134.
 9 2000-01-01 Adelaide South Australia Business  154.
10 2000-04-01 Adelaide South Australia Business  169.
# ℹ 24,310 more rows

Example 1 (con’t)

Coerce tibble object to tsibble

my_tourism <- my_tourism |>
  mutate(Quarter = yearquarter(Quarter)) |>
  as_tsibble(
    index = Quarter,
    key = c(Region, State, Purpose)
  )
my_tourism

# A tsibble: 24,320 x 5 [1Q]
# Key:       Region, State, Purpose [304]
   Quarter Region   State           Purpose  Trips
     <qtr> <chr>    <chr>           <chr>    <dbl>
 1 1998 Q1 Adelaide South Australia Business  135.
 2 1998 Q2 Adelaide South Australia Business  110.
 3 1998 Q3 Adelaide South Australia Business  166.
 4 1998 Q4 Adelaide South Australia Business  127.
 5 1999 Q1 Adelaide South Australia Business  137.
 6 1999 Q2 Adelaide South Australia Business  200.
 7 1999 Q3 Adelaide South Australia Business  169.
 8 1999 Q4 Adelaide South Australia Business  134.
 9 2000 Q1 Adelaide South Australia Business  154.
10 2000 Q2 Adelaide South Australia Business  169.
# ℹ 24,310 more rows
…
$State
[1] "South Australia"    "Northern Territory" "Western Australia" 
[4] "Victoria"           "New South Wales"    "Queensland"        
[7] "ACT"                "Tasmania"          

$Purpose
[1] "Business" "Holiday"  "Other"    "Visiting"

Example 1 (con’t)

nobs <- my_tourism |>
  count(Region, State, Purpose)
print(nobs)

# A tibble: 304 × 4
   Region         State              Purpose      n
   <chr>          <chr>              <chr>    <int>
 1 Adelaide       South Australia    Business    80
 2 Adelaide       South Australia    Holiday     80
 3 Adelaide       South Australia    Other       80
 4 Adelaide       South Australia    Visiting    80
 5 Adelaide Hills South Australia    Business    80
 6 Adelaide Hills South Australia    Holiday     80
 7 Adelaide Hills South Australia    Other       80
 8 Adelaide Hills South Australia    Visiting    80
 9 Alice Springs  Northern Territory Business    80
10 Alice Springs  Northern Territory Holiday     80
# ℹ 294 more rows
…
ymd("2024-04-03")+ 0:4

[1] "2024-04-03" "2024-04-04" "2024-04-05" "2024-04-06" "2024-04-07"

as_datetime("2024-04-03 00:09:15")+0:2

[1] "2024-04-03 00:09:15 UTC" "2024-04-03 00:09:16 UTC"
[3] "2024-04-03 00:09:17 UTC"

Working with tsibble objects

Let’s use the filter() function to select rows.

# A tsibble: 320 x 5 [1Q]
# Key:       Region, State, Purpose [4]
   Quarter Region        State              Purpose  Trips
     <qtr> <chr>         <chr>              <chr>    <dbl>
 1 1998 Q1 Alice Springs Northern Territory Business  7.54
 2 1998 Q2 Alice Springs Northern Territory Business  3.36
 3 1998 Q3 Alice Springs Northern Territory Business 21.8 
 4 1998 Q4 Alice Springs Northern Territory Business  3.98
 5 1999 Q1 Alice Springs Northern Territory Business 18.4 
 6 1999 Q2 Alice Springs Northern Territory Business 16.4 
 7 1999 Q3 Alice Springs Northern Territory Business  8.65
 8 1999 Q4 Alice Springs Northern Territory Business 15.9 
 9 2000 Q1 Alice Springs Northern Territory Business  4.88
10 2000 Q2 Alice Springs Northern Territory Business 11.2 
# ℹ 310 more rows

Working with tsibble objects

Let’s calculate average trips over Purpose for each quarter in Alice Springs

# A tsibble: 80 x 2 [1Q]
   Quarter AverageTrips
     <qtr>        <dbl>
 1 1998 Q1         5.05
 2 1998 Q2        14.1 
 3 1998 Q3        27.7 
 4 1998 Q4        10.2 
 5 1999 Q1        12.1 
 6 1999 Q2        17.0 
 7 1999 Q3        19.2 
 8 1999 Q4        16.5 
 9 2000 Q1         8.10
10 2000 Q2         9.94
# ℹ 70 more rows

Working with tsibble objects

Create new tsibble with total number of trips by state

# A tsibble: 640 x 3 [1Q]
# Key:       State [8]
   State Quarter TotalTrips
   <chr>   <qtr>      <dbl>
 1 ACT   1998 Q1       551.
 2 ACT   1998 Q2       416.
 3 ACT   1998 Q3       436.
 4 ACT   1998 Q4       450.
 5 ACT   1999 Q1       379.
 6 ACT   1999 Q2       558.
 7 ACT   1999 Q3       449.
 8 ACT   1999 Q4       595.
 9 ACT   2000 Q1       600.
10 ACT   2000 Q2       557.
# ℹ 630 more rows
