Time Series Analysis: Week 2 - April 8
…
Relationships between variables.

US GDP

Filter the US data from global_economy

Code

us_economy <- global_economy %>%
filter(Country == "United States")

print(us_economy)

# A tsibble: 58 x 9 [1Y]
# Key:       Country [1]
   Country       Code   Year         GDP Growth   CPI Imports Exports Population
   <fct>         <fct> <dbl>       <dbl>  <dbl> <dbl>   <dbl>   <dbl>      <dbl>
 1 United States USA    1960     5.43e11  NA     13.6    4.20    4.97  180671000
 2 United States USA    1961     5.63e11   2.30  13.7    4.03    4.90  183691000
 3 United States USA    1962     6.05e11   6.10  13.9    4.13    4.81  186538000
 4 United States USA    1963     6.39e11   4.40  14.0    4.09    4.87  189242000
 5 United States USA    1964     6.86e11   5.80  14.2    4.10    5.10  191889000
 6 United States USA    1965     7.44e11   6.40  14.4    4.24    4.99  194303000
 7 United States USA    1966     8.15e11   6.50  14.9    4.55    5.02  196560000
 8 United States USA    1967     8.62e11   2.50  15.3    4.63    5.05  198712000
 9 United States USA    1968     9.42e11   4.80  16.0    4.94    5.08  200706000
10 United States USA    1969     1.02e12   3.10  16.8    4.95    5.09  202677000
# ℹ 48 more rows
…
Electricity Consumption

Code

vic_elec 

# A tsibble: 52,608 x 5 [30m] <Australia/Melbourne>
   Time                Demand Temperature Date       Holiday
   <dttm>               <dbl>       <dbl> <date>     <lgl>  
 1 2012-01-01 00:00:00  4383.        21.4 2012-01-01 TRUE   
 2 2012-01-01 00:30:00  4263.        21.0 2012-01-01 TRUE   
 3 2012-01-01 01:00:00  4049.        20.7 2012-01-01 TRUE   
 4 2012-01-01 01:30:00  3878.        20.6 2012-01-01 TRUE   
 5 2012-01-01 02:00:00  4036.        20.4 2012-01-01 TRUE   
 6 2012-01-01 02:30:00  3866.        20.2 2012-01-01 TRUE   
 7 2012-01-01 03:00:00  3694.        20.1 2012-01-01 TRUE   
 8 2012-01-01 03:30:00  3562.        19.6 2012-01-01 TRUE   
 9 2012-01-01 04:00:00  3433.        19.1 2012-01-01 TRUE   
10 2012-01-01 04:30:00  3359.        19.0 2012-01-01 TRUE   
# ℹ 52,598 more rows
…
